<svg xmlns="http://www.w3.org/2000/svg" xmlns:xlink="http://www.w3.org/1999/xlink" width="1200" height="1200" viewBox="0 0 1200 1200"><rect width="100%" height="100%" fill="#ffffff"/><g transform="translate(600 600) scale(0.69 0.69) rotate(0) translate(-600 -600)" style="fill:#999999"><svg fill="#999999" xmlns="http://www.w3.org/2000/svg" xmlns:xlink="http://www.w3.org/1999/xlink" xml:space="preserve" version="1.1" style="shape-rendering:geometricPrecision;text-rendering:geometricPrecision;image-rendering:optimizeQuality;" viewBox="0 0 333 333" x="0px" y="0px" fill-rule="evenodd" clip-rule="evenodd"><defs><style type="text/css">
   
    .fil0 {fill:#999999}
   
  </style></defs><g><path class="fil0" d="M51 99l21 0 0 26 -21 0 0 -26zm190 -19l0 -8c0,-2 1,-3 2,-3l42 0c1,0 2,1 2,3l0 8 5 0c14,0 25,11 25,24l0 136c0,13 -11,24 -25,24l-251 0c-13,0 -24,-11 -24,-24l0 -136c0,-13 11,-24 24,-24l9 0 0 -11 36 0 0 11 12 0 0 -2c0,-3 2,-5 5,-5l11 0c3,0 5,2 5,5l0 2 122 0zm51 177c9,0 15,-6 17,-13l-111 0c-20,10 -43,10 -63,0l-111 0c2,7 9,13 17,13l251 0zm-125 -14c34,0 62,-28 62,-62 0,-35 -28,-63 -62,-63 -35,0 -62,28 -62,63 0,34 27,62 62,62zm60 -98l83 0 0 -41c0,-9 -8,-17 -18,-17l-251 0c-10,0 -17,8 -17,17l0 41 82 0c28,-46 94,-46 121,0zm-60 -11c-26,0 -47,21 -47,47 0,25 21,46 47,47 25,-1 46,-22 46,-47 0,-26 -21,-47 -46,-47zm91 -35l25 0 0 13 -25 0 0 -13zm-35 0l24 0 0 13 -24 0 0 -13zm-146 0l34 0 0 18 -34 0 0 -18zm3 4l27 0 0 11 -27 0 0 -11z"/></g></svg></g></svg>